
{
    "name":"mapp Metro.j",
    "lines":[
        {
            "name":"Kube",
            "circular":false,
            "color":{
                "red":0.0,
                "green":0.0,
                "blue":0.0,
                "alpha":1.0
            },
            "station_names":[
                "lkasdf",
                "Kine 5"
            ]
        },
        {
            "name":"LMAO",
            "circular":false,
            "color":{
                "red":0.0,
                "green":0.0,
                "blue":0.0,
                "alpha":1.0
            },
            "station_names":[
                "jjjd"
            ]
        }
    ],
    "stations":[
        {
            "name":"lkasdf",
            "x":406.0,
            "y":328.0
        },
        {
            "name":"Kine 5",
            "x":535.0,
            "y":321.0
        },
        {
            "name":"jjjd",
            "x":717.5,
            "y":175.0
        }
    ]
}