
{
    "background_color":{
        "red":1.0,
        "green":0.6000000238418579,
        "blue":0.4000000059604645,
        "alpha":1.0
    },
    "shapes":[
        {
            "type":"GROUP",
            "group_type":"Line",
            "size":7
        },
        {
            "type":"TEXT",
            "text":"lkjsa;df;slajkf",
            "x":299.0,
            "y":146.0,
            "width":82.1630859375,
            "height":0.0,
            "fill_color":{
                "red":0.0,
                "green":0.0,
                "blue":0.0,
                "alpha":1.0
            },
            "outline_thickness":1.0
        },
        {
            "type":"LINE",
            "start_x":391.1630859375,
            "start_y":146.0,
            "end_x":508.08154296875,
            "end_y":158.5,
            "width":0.0,
            "height":0.0,
            "outline_color":{
                "red":0.0,
                "green":0.0,
                "blue":0.0,
                "alpha":1.0
            },
            "outline_thickness":1.0
        },
        {
            "type":"GROUP",
            "group_type":"Station",
            "size":2
        },
        {
            "type":"STATION",
            "x":508.08154296875,
            "y":158.5,
            "width":20.0,
            "height":20.0,
            "fill_color":{
                "red":0.0,
                "green":0.0,
                "blue":0.0,
                "alpha":1.0
            },
            "outline_thickness":1.0
        },
        {
            "type":"TEXT",
            "text":"lalksfdkl",
            "x":528.08154296875,
            "y":138.5,
            "width":53.3349609375,
            "height":0.0,
            "fill_color":{
                "red":0.0,
                "green":0.0,
                "blue":0.0,
                "alpha":1.0
            },
            "outline_thickness":1.0
        },
        {
            "type":"LINE",
            "start_x":508.08154296875,
            "start_y":158.5,
            "end_x":692.0,
            "end_y":217.0,
            "width":0.0,
            "height":0.0,
            "outline_color":{
                "red":0.0,
                "green":0.0,
                "blue":0.0,
                "alpha":1.0
            },
            "outline_thickness":1.0
        },
        {
            "type":"GROUP",
            "group_type":"Station",
            "size":2
        },
        {
            "type":"STATION",
            "x":692.0,
            "y":217.0,
            "width":20.0,
            "height":20.0,
            "fill_color":{
                "red":0.0,
                "green":0.0,
                "blue":0.0,
                "alpha":1.0
            },
            "outline_thickness":1.0
        },
        {
            "type":"TEXT",
            "text":"klasdflkasdf",
            "x":712.0,
            "y":197.0,
            "width":77.2265625,
            "height":0.0,
            "fill_color":{
                "red":0.0,
                "green":0.0,
                "blue":0.0,
                "alpha":1.0
            },
            "outline_thickness":1.0
        },
        {
            "type":"LINE",
            "start_x":692.0,
            "start_y":217.0,
            "end_x":1142.8369140625,
            "end_y":313.0,
            "width":0.0,
            "height":0.0,
            "outline_color":{
                "red":0.0,
                "green":0.0,
                "blue":0.0,
                "alpha":1.0
            },
            "outline_thickness":1.0
        },
        {
            "type":"TEXT",
            "text":"lkjsa;df;slajkf",
            "x":1215.0,
            "y":313.0,
            "width":82.1630859375,
            "height":0.0,
            "fill_color":{
                "red":0.0,
                "green":0.0,
                "blue":0.0,
                "alpha":1.0
            },
            "outline_thickness":1.0
        },
        {
            "type":"TEXT",
            "text":"Label",
            "x":260.0,
            "y":476.0,
            "width":34.98779296875,
            "height":0.0,
            "fill_color":{
                "red":0.0,
                "green":0.0,
                "blue":0.0,
                "alpha":1.0
            },
            "outline_thickness":1.0
        },
        {
            "type":"IMAGE",
            "x":219.0,
            "y":186.0,
            "width":19.0,
            "height":24.0,
            "image_URL":"file:C:\\Users\\Kitcatski\\Documents\\CSE219Netbeans\\FinalProject\\MetroMap\\images\\BoldText.png"
        },
        {
            "type":"IMAGE",
            "x":804.0,
            "y":586.0,
            "width":16.0,
            "height":24.0,
            "image_URL":"file:C:\\Users\\Kitcatski\\Documents\\CSE219Netbeans\\FinalProject\\MetroMap\\images\\Cut.png"
        },
        {
            "type":"GROUP",
            "group_type":"Line",
            "size":7
        },
        {
            "type":"TEXT",
            "text":"Line 6",
            "x":433.0,
            "y":325.0,
            "width":39.22119140625,
            "height":0.0,
            "fill_color":{
                "red":0.0,
                "green":0.0,
                "blue":0.0,
                "alpha":1.0
            },
            "outline_thickness":1.0
        },
        {
            "type":"LINE",
            "start_x":482.22119140625,
            "start_y":325.0,
            "end_x":596.0,
            "end_y":503.0,
            "width":0.0,
            "height":0.0,
            "outline_color":{
                "red":0.0,
                "green":0.0,
                "blue":0.0,
                "alpha":1.0
            },
            "outline_thickness":1.0
        },
        {
            "type":"GROUP",
            "group_type":"Station",
            "size":2
        },
        {
            "type":"STATION",
            "x":596.0,
            "y":503.0,
            "width":20.0,
            "height":20.0,
            "fill_color":{
                "red":0.0,
                "green":0.0,
                "blue":0.0,
                "alpha":1.0
            },
            "outline_thickness":1.0
        },
        {
            "type":"TEXT",
            "text":"Station 9",
            "x":616.0,
            "y":483.0,
            "width":58.8720703125,
            "height":0.0,
            "fill_color":{
                "red":0.0,
                "green":0.0,
                "blue":0.0,
                "alpha":1.0
            },
            "outline_thickness":1.0
        },
        {
            "type":"LINE",
            "start_x":596.0,
            "start_y":503.0,
            "end_x":724.0,
            "end_y":407.0,
            "width":0.0,
            "height":0.0,
            "outline_color":{
                "red":0.0,
                "green":0.0,
                "blue":0.0,
                "alpha":1.0
            },
            "outline_thickness":1.0
        },
        {
            "type":"GROUP",
            "group_type":"Station",
            "size":2
        },
        {
            "type":"STATION",
            "x":724.0,
            "y":407.0,
            "width":20.0,
            "height":20.0,
            "fill_color":{
                "red":0.0,
                "green":0.0,
                "blue":0.0,
                "alpha":1.0
            },
            "outline_thickness":1.0
        },
        {
            "type":"TEXT",
            "text":"Station 10",
            "x":744.0,
            "y":387.0,
            "width":66.9580078125,
            "height":0.0,
            "fill_color":{
                "red":0.0,
                "green":0.0,
                "blue":0.0,
                "alpha":1.0
            },
            "outline_thickness":1.0
        },
        {
            "type":"LINE",
            "start_x":724.0,
            "start_y":407.0,
            "end_x":965.77880859375,
            "end_y":489.0,
            "width":0.0,
            "height":0.0,
            "outline_color":{
                "red":0.0,
                "green":0.0,
                "blue":0.0,
                "alpha":1.0
            },
            "outline_thickness":1.0
        },
        {
            "type":"TEXT",
            "text":"Line 6",
            "x":985.0,
            "y":489.0,
            "width":39.22119140625,
            "height":0.0,
            "fill_color":{
                "red":0.0,
                "green":0.0,
                "blue":0.0,
                "alpha":1.0
            },
            "outline_thickness":1.0
        }
    ]
}